Simulate Digital Ad Report
…
tt

## # A tibble: 21,600 x 10
##    client campaign placement creativesize day   impressions clicks  cost
##    <chr>  <chr>    <chr>     <chr>        <chr>       <dbl>  <dbl> <dbl>
##  1 clien~ campaig~ placemen~ creativeSiz~ 1             796     13    13
##  2 clien~ campaig~ placemen~ creativeSiz~ 2            3478     85    36
##  3 clien~ campaig~ placemen~ creativeSiz~ 3            1250     28    19
##  4 clien~ campaig~ placemen~ creativeSiz~ 4            2308     72    31
##  5 clien~ campaig~ placemen~ creativeSiz~ 5            1132     22    19
##  6 clien~ campaig~ placemen~ creativeSiz~ 6             277     19     4
##  7 clien~ campaig~ placemen~ creativeSiz~ 7             203     69     2
##  8 clien~ campaig~ placemen~ creativeSiz~ 8            1036     47    12
##  9 clien~ campaig~ placemen~ creativeSiz~ 9            2820     13    19
## 10 clien~ campaig~ placemen~ creativeSiz~ 10           1160      9    11
## # ... with 21,590 more rows, and 2 more variables: CPM <dbl>, CTR <dbl>
